\relax 
\@writefile{toc}{\contentsline {section}{\numberline {1}Final results}{7}}
\@writefile{toc}{\contentsline {subsection}{\numberline {1.1}Image 1}{7}}
\@writefile{toc}{\contentsline {subsubsection}{\numberline {1.1.1}Original FEN string}{7}}
\@writefile{toc}{\contentsline {subsubsection}{\numberline {1.1.2}Extracted FEN string}{7}}
\@writefile{toc}{\contentsline {subsubsection}{\numberline {1.1.3}Errors}{7}}
\@writefile{toc}{\contentsline {subsection}{\numberline {1.2}Image 2}{7}}
\@writefile{toc}{\contentsline {subsubsection}{\numberline {1.2.1}Original FEN string}{7}}
\@writefile{toc}{\contentsline {subsubsection}{\numberline {1.2.2}Extracted FEN string}{7}}
\@writefile{toc}{\contentsline {subsubsection}{\numberline {1.2.3}Errors}{7}}
\@writefile{toc}{\contentsline {subsection}{\numberline {1.3}Image 3}{7}}
\@writefile{toc}{\contentsline {subsubsection}{\numberline {1.3.1}Original FEN string}{7}}
\@writefile{toc}{\contentsline {subsubsection}{\numberline {1.3.2}Extracted FEN string}{7}}
\@writefile{toc}{\contentsline {subsubsection}{\numberline {1.3.3}Errors}{7}}
\@writefile{toc}{\contentsline {subsection}{\numberline {1.4}Image 4}{7}}
\@writefile{toc}{\contentsline {subsubsection}{\numberline {1.4.1}Original FEN string}{7}}
\@writefile{toc}{\contentsline {subsubsection}{\numberline {1.4.2}Extracted FEN string}{7}}
\@writefile{toc}{\contentsline {subsubsection}{\numberline {1.4.3}Errors}{8}}
\@writefile{toc}{\contentsline {subsection}{\numberline {1.5}Image 5}{8}}
\@writefile{toc}{\contentsline {subsubsection}{\numberline {1.5.1}Original FEN string}{8}}
\@writefile{toc}{\contentsline {subsubsection}{\numberline {1.5.2}Extracted FEN string}{8}}
\@writefile{toc}{\contentsline {subsubsection}{\numberline {1.5.3}Errors}{8}}
\@writefile{toc}{\contentsline {subsection}{\numberline {1.6}Image 6}{8}}
\@writefile{toc}{\contentsline {subsubsection}{\numberline {1.6.1}Original FEN string}{8}}
\@writefile{toc}{\contentsline {subsubsection}{\numberline {1.6.2}Extracted FEN string}{8}}
\@writefile{toc}{\contentsline {subsubsection}{\numberline {1.6.3}Errors}{8}}
\@writefile{toc}{\contentsline {subsection}{\numberline {1.7}Image 7}{8}}
\@writefile{toc}{\contentsline {subsubsection}{\numberline {1.7.1}Original FEN string}{8}}
\@writefile{toc}{\contentsline {subsubsection}{\numberline {1.7.2}Extracted FEN string}{8}}
\@writefile{toc}{\contentsline {subsubsection}{\numberline {1.7.3}Errors}{8}}
\@writefile{toc}{\contentsline {subsection}{\numberline {1.8}Image 8}{8}}
\@writefile{toc}{\contentsline {subsubsection}{\numberline {1.8.1}Original FEN string}{8}}
\@writefile{toc}{\contentsline {subsubsection}{\numberline {1.8.2}Extracted FEN string}{8}}
\@writefile{toc}{\contentsline {subsubsection}{\numberline {1.8.3}Errors}{9}}
\@writefile{toc}{\contentsline {subsection}{\numberline {1.9}Image 9}{9}}
\@writefile{toc}{\contentsline {subsubsection}{\numberline {1.9.1}Original FEN string}{9}}
\@writefile{toc}{\contentsline {subsubsection}{\numberline {1.9.2}Extracted FEN string}{9}}
\@writefile{toc}{\contentsline {subsubsection}{\numberline {1.9.3}Errors}{9}}
\@writefile{toc}{\contentsline {subsection}{\numberline {1.10}Image 10}{9}}
\@writefile{toc}{\contentsline {subsubsection}{\numberline {1.10.1}Original FEN string}{9}}
\@writefile{toc}{\contentsline {subsubsection}{\numberline {1.10.2}Extracted FEN string}{9}}
\@writefile{toc}{\contentsline {subsubsection}{\numberline {1.10.3}Errors}{9}}
\@writefile{toc}{\contentsline {subsection}{\numberline {1.11}Image 11}{9}}
\@writefile{toc}{\contentsline {subsubsection}{\numberline {1.11.1}Original FEN string}{9}}
\@writefile{toc}{\contentsline {subsubsection}{\numberline {1.11.2}Extracted FEN string}{9}}
\@writefile{toc}{\contentsline {subsubsection}{\numberline {1.11.3}Errors}{9}}
\@writefile{toc}{\contentsline {subsection}{\numberline {1.12}Image 12}{9}}
\@writefile{toc}{\contentsline {subsubsection}{\numberline {1.12.1}Original FEN string}{9}}
\@writefile{toc}{\contentsline {subsubsection}{\numberline {1.12.2}Extracted FEN string}{9}}
\@writefile{toc}{\contentsline {subsubsection}{\numberline {1.12.3}Errors}{10}}
\@writefile{toc}{\contentsline {subsection}{\numberline {1.13}Image 13}{10}}
\@writefile{toc}{\contentsline {subsubsection}{\numberline {1.13.1}Original FEN string}{10}}
\@writefile{toc}{\contentsline {subsubsection}{\numberline {1.13.2}Extracted FEN string}{10}}
\@writefile{toc}{\contentsline {subsubsection}{\numberline {1.13.3}Errors}{10}}
\@writefile{toc}{\contentsline {subsection}{\numberline {1.14}Image 14}{10}}
\@writefile{toc}{\contentsline {subsubsection}{\numberline {1.14.1}Original FEN string}{10}}
\@writefile{toc}{\contentsline {subsubsection}{\numberline {1.14.2}Extracted FEN string}{10}}
\@writefile{toc}{\contentsline {subsubsection}{\numberline {1.14.3}Errors}{10}}
\@writefile{toc}{\contentsline {subsection}{\numberline {1.15}Image 15}{10}}
\@writefile{toc}{\contentsline {subsubsection}{\numberline {1.15.1}Original FEN string}{10}}
\@writefile{toc}{\contentsline {subsubsection}{\numberline {1.15.2}Extracted FEN string}{10}}
\@writefile{toc}{\contentsline {subsubsection}{\numberline {1.15.3}Errors}{10}}
\@writefile{toc}{\contentsline {subsection}{\numberline {1.16}Image 16}{10}}
\@writefile{toc}{\contentsline {subsubsection}{\numberline {1.16.1}Original FEN string}{10}}
\@writefile{toc}{\contentsline {subsubsection}{\numberline {1.16.2}Extracted FEN string}{10}}
\@writefile{toc}{\contentsline {subsubsection}{\numberline {1.16.3}Errors}{11}}
\@writefile{toc}{\contentsline {subsection}{\numberline {1.17}Image 17}{11}}
\@writefile{toc}{\contentsline {subsection}{\numberline {1.18}Image 18}{11}}
\@writefile{toc}{\contentsline {subsubsection}{\numberline {1.18.1}Original FEN string}{11}}
\@writefile{toc}{\contentsline {subsubsection}{\numberline {1.18.2}Extracted FEN string}{11}}
\@writefile{toc}{\contentsline {subsubsection}{\numberline {1.18.3}Errors}{11}}
\@writefile{toc}{\contentsline {subsection}{\numberline {1.19}Image 19}{11}}
\@writefile{toc}{\contentsline {subsubsection}{\numberline {1.19.1}Original FEN string}{11}}
\@writefile{toc}{\contentsline {subsubsection}{\numberline {1.19.2}Extracted FEN string}{11}}
\@writefile{toc}{\contentsline {subsubsection}{\numberline {1.19.3}Errors}{11}}
\@writefile{toc}{\contentsline {subsection}{\numberline {1.20}Image 20}{11}}
\@writefile{toc}{\contentsline {subsubsection}{\numberline {1.20.1}Original FEN string}{11}}
\@writefile{toc}{\contentsline {subsubsection}{\numberline {1.20.2}Extracted FEN string}{11}}
\@writefile{toc}{\contentsline {subsubsection}{\numberline {1.20.3}Errors}{11}}
\@writefile{toc}{\contentsline {subsection}{\numberline {1.21}Image 21}{11}}
\@writefile{toc}{\contentsline {subsection}{\numberline {1.22}Image 22}{12}}
\@writefile{toc}{\contentsline {subsubsection}{\numberline {1.22.1}Original FEN string}{12}}
\@writefile{toc}{\contentsline {subsubsection}{\numberline {1.22.2}Extracted FEN string}{12}}
\@writefile{toc}{\contentsline {subsubsection}{\numberline {1.22.3}Errors}{12}}
\@writefile{toc}{\contentsline {subsection}{\numberline {1.23}Image 23}{12}}
\@writefile{toc}{\contentsline {subsubsection}{\numberline {1.23.1}Original FEN string}{12}}
\@writefile{toc}{\contentsline {subsubsection}{\numberline {1.23.2}Extracted FEN string}{12}}
\@writefile{toc}{\contentsline {subsubsection}{\numberline {1.23.3}Errors}{12}}
\@writefile{toc}{\contentsline {subsection}{\numberline {1.24}Image 24}{12}}
\@writefile{toc}{\contentsline {subsubsection}{\numberline {1.24.1}Original FEN string}{12}}
\@writefile{toc}{\contentsline {subsubsection}{\numberline {1.24.2}Extracted FEN string}{12}}
\@writefile{toc}{\contentsline {subsubsection}{\numberline {1.24.3}Errors}{12}}
\@writefile{toc}{\contentsline {subsection}{\numberline {1.25}Image 25}{12}}
\@writefile{toc}{\contentsline {subsubsection}{\numberline {1.25.1}Original FEN string}{12}}
\@writefile{toc}{\contentsline {subsubsection}{\numberline {1.25.2}Extracted FEN string}{12}}
\@writefile{toc}{\contentsline {subsubsection}{\numberline {1.25.3}Errors}{12}}
\@writefile{toc}{\contentsline {subsection}{\numberline {1.26}Image 26}{13}}
\@writefile{toc}{\contentsline {subsubsection}{\numberline {1.26.1}Original FEN string}{13}}
\@writefile{toc}{\contentsline {subsubsection}{\numberline {1.26.2}Extracted FEN string}{13}}
\@writefile{toc}{\contentsline {subsubsection}{\numberline {1.26.3}Errors}{13}}
\@writefile{toc}{\contentsline {subsection}{\numberline {1.27}Image 27}{13}}
\@writefile{toc}{\contentsline {subsubsection}{\numberline {1.27.1}Original FEN string}{13}}
\@writefile{toc}{\contentsline {subsubsection}{\numberline {1.27.2}Extracted FEN string}{13}}
\@writefile{toc}{\contentsline {subsubsection}{\numberline {1.27.3}Errors}{13}}
\@writefile{toc}{\contentsline {subsection}{\numberline {1.28}Image 28}{13}}
\@writefile{toc}{\contentsline {subsubsection}{\numberline {1.28.1}Original FEN string}{13}}
\@writefile{toc}{\contentsline {subsubsection}{\numberline {1.28.2}Extracted FEN string}{13}}
\@writefile{toc}{\contentsline {subsubsection}{\numberline {1.28.3}Errors}{13}}
\@writefile{toc}{\contentsline {subsection}{\numberline {1.29}Image 29}{13}}
\@writefile{toc}{\contentsline {subsubsection}{\numberline {1.29.1}Original FEN string}{13}}
\@writefile{toc}{\contentsline {subsubsection}{\numberline {1.29.2}Extracted FEN string}{13}}
\@writefile{toc}{\contentsline {subsubsection}{\numberline {1.29.3}Errors}{13}}
\@writefile{toc}{\contentsline {subsection}{\numberline {1.30}Image 30}{14}}
\@writefile{toc}{\contentsline {subsubsection}{\numberline {1.30.1}Original FEN string}{14}}
\@writefile{toc}{\contentsline {subsubsection}{\numberline {1.30.2}Extracted FEN string}{14}}
\@writefile{toc}{\contentsline {subsubsection}{\numberline {1.30.3}Errors}{14}}
\@writefile{toc}{\contentsline {subsection}{\numberline {1.31}Image 31}{14}}
\@writefile{toc}{\contentsline {subsubsection}{\numberline {1.31.1}Original FEN string}{14}}
\@writefile{toc}{\contentsline {subsubsection}{\numberline {1.31.2}Extracted FEN string}{14}}
\@writefile{toc}{\contentsline {subsubsection}{\numberline {1.31.3}Errors}{14}}
\@writefile{toc}{\contentsline {subsection}{\numberline {1.32}Image 32}{14}}
\@writefile{toc}{\contentsline {subsubsection}{\numberline {1.32.1}Original FEN string}{14}}
\@writefile{toc}{\contentsline {subsubsection}{\numberline {1.32.2}Extracted FEN string}{14}}
\@writefile{toc}{\contentsline {subsubsection}{\numberline {1.32.3}Errors}{14}}
\@writefile{toc}{\contentsline {subsection}{\numberline {1.33}Image 33}{14}}
\@writefile{toc}{\contentsline {subsubsection}{\numberline {1.33.1}Original FEN string}{14}}
\@writefile{toc}{\contentsline {subsubsection}{\numberline {1.33.2}Extracted FEN string}{14}}
\@writefile{toc}{\contentsline {subsubsection}{\numberline {1.33.3}Errors}{14}}
\@writefile{toc}{\contentsline {subsection}{\numberline {1.34}Image 34}{15}}
\@writefile{toc}{\contentsline {subsubsection}{\numberline {1.34.1}Original FEN string}{15}}
\@writefile{toc}{\contentsline {subsubsection}{\numberline {1.34.2}Extracted FEN string}{15}}
\@writefile{toc}{\contentsline {subsubsection}{\numberline {1.34.3}Errors}{15}}
\@writefile{toc}{\contentsline {subsection}{\numberline {1.35}Image 35}{15}}
\@writefile{toc}{\contentsline {subsubsection}{\numberline {1.35.1}Original FEN string}{15}}
\@writefile{toc}{\contentsline {subsubsection}{\numberline {1.35.2}Extracted FEN string}{15}}
\@writefile{toc}{\contentsline {subsubsection}{\numberline {1.35.3}Errors}{15}}
\@writefile{toc}{\contentsline {subsection}{\numberline {1.36}Image 36}{15}}
\@writefile{toc}{\contentsline {subsubsection}{\numberline {1.36.1}Original FEN string}{15}}
\@writefile{toc}{\contentsline {subsubsection}{\numberline {1.36.2}Extracted FEN string}{15}}
\@writefile{toc}{\contentsline {subsubsection}{\numberline {1.36.3}Errors}{15}}
\@writefile{toc}{\contentsline {subsection}{\numberline {1.37}Image 37}{15}}
\@writefile{toc}{\contentsline {subsubsection}{\numberline {1.37.1}Original FEN string}{15}}
\@writefile{toc}{\contentsline {subsubsection}{\numberline {1.37.2}Extracted FEN string}{15}}
\@writefile{toc}{\contentsline {subsubsection}{\numberline {1.37.3}Errors}{15}}
\@writefile{toc}{\contentsline {subsection}{\numberline {1.38}Image 38}{16}}
\@writefile{toc}{\contentsline {subsubsection}{\numberline {1.38.1}Original FEN string}{16}}
\@writefile{toc}{\contentsline {subsubsection}{\numberline {1.38.2}Extracted FEN string}{16}}
\@writefile{toc}{\contentsline {subsubsection}{\numberline {1.38.3}Errors}{16}}
\@writefile{toc}{\contentsline {subsection}{\numberline {1.39}Image 39}{16}}
\@writefile{toc}{\contentsline {subsubsection}{\numberline {1.39.1}Original FEN string}{16}}
\@writefile{toc}{\contentsline {subsubsection}{\numberline {1.39.2}Extracted FEN string}{16}}
\@writefile{toc}{\contentsline {subsubsection}{\numberline {1.39.3}Errors}{16}}
\@writefile{toc}{\contentsline {subsection}{\numberline {1.40}Image 40}{16}}
\@writefile{toc}{\contentsline {subsubsection}{\numberline {1.40.1}Original FEN string}{16}}
\@writefile{toc}{\contentsline {subsubsection}{\numberline {1.40.2}Extracted FEN string}{16}}
\@writefile{toc}{\contentsline {subsubsection}{\numberline {1.40.3}Errors}{16}}
\@writefile{toc}{\contentsline {subsection}{\numberline {1.41}Image 41}{16}}
\@writefile{toc}{\contentsline {subsubsection}{\numberline {1.41.1}Original FEN string}{16}}
\@writefile{toc}{\contentsline {subsubsection}{\numberline {1.41.2}Extracted FEN string}{16}}
\@writefile{toc}{\contentsline {subsubsection}{\numberline {1.41.3}Errors}{16}}
\@writefile{toc}{\contentsline {subsection}{\numberline {1.42}Image 42}{17}}
\@writefile{toc}{\contentsline {subsubsection}{\numberline {1.42.1}Original FEN string}{17}}
\@writefile{toc}{\contentsline {subsubsection}{\numberline {1.42.2}Extracted FEN string}{17}}
\@writefile{toc}{\contentsline {subsubsection}{\numberline {1.42.3}Errors}{17}}
\@writefile{toc}{\contentsline {subsection}{\numberline {1.43}Image 43}{17}}
\@writefile{toc}{\contentsline {subsubsection}{\numberline {1.43.1}Original FEN string}{17}}
\@writefile{toc}{\contentsline {subsubsection}{\numberline {1.43.2}Extracted FEN string}{17}}
\@writefile{toc}{\contentsline {subsubsection}{\numberline {1.43.3}Errors}{17}}
\@writefile{toc}{\contentsline {subsection}{\numberline {1.44}Image 44}{17}}
\@writefile{toc}{\contentsline {subsubsection}{\numberline {1.44.1}Original FEN string}{17}}
\@writefile{toc}{\contentsline {subsubsection}{\numberline {1.44.2}Extracted FEN string}{17}}
\@writefile{toc}{\contentsline {subsubsection}{\numberline {1.44.3}Errors}{17}}
\@writefile{toc}{\contentsline {subsection}{\numberline {1.45}Image 45}{17}}
\@writefile{toc}{\contentsline {subsubsection}{\numberline {1.45.1}Original FEN string}{17}}
\@writefile{toc}{\contentsline {subsubsection}{\numberline {1.45.2}Extracted FEN string}{17}}
\@writefile{toc}{\contentsline {subsubsection}{\numberline {1.45.3}Errors}{17}}
\@writefile{toc}{\contentsline {subsection}{\numberline {1.46}Image 46}{18}}
\@writefile{toc}{\contentsline {subsubsection}{\numberline {1.46.1}Original FEN string}{18}}
\@writefile{toc}{\contentsline {subsubsection}{\numberline {1.46.2}Extracted FEN string}{18}}
\@writefile{toc}{\contentsline {subsubsection}{\numberline {1.46.3}Errors}{18}}
\@writefile{toc}{\contentsline {subsection}{\numberline {1.47}Image 47}{18}}
\@writefile{toc}{\contentsline {subsubsection}{\numberline {1.47.1}Original FEN string}{18}}
\@writefile{toc}{\contentsline {subsubsection}{\numberline {1.47.2}Extracted FEN string}{18}}
\@writefile{toc}{\contentsline {subsubsection}{\numberline {1.47.3}Errors}{18}}
\@writefile{toc}{\contentsline {subsection}{\numberline {1.48}Image 48}{18}}
\@writefile{toc}{\contentsline {subsubsection}{\numberline {1.48.1}Original FEN string}{18}}
\@writefile{toc}{\contentsline {subsubsection}{\numberline {1.48.2}Extracted FEN string}{18}}
\@writefile{toc}{\contentsline {subsubsection}{\numberline {1.48.3}Errors}{18}}
\@writefile{toc}{\contentsline {subsection}{\numberline {1.49}Image 49}{18}}
\@writefile{toc}{\contentsline {subsection}{\numberline {1.50}Image 50}{18}}
\@writefile{toc}{\contentsline {subsubsection}{\numberline {1.50.1}Original FEN string}{18}}
\@writefile{toc}{\contentsline {subsubsection}{\numberline {1.50.2}Extracted FEN string}{18}}
\@writefile{toc}{\contentsline {subsubsection}{\numberline {1.50.3}Errors}{19}}
\@writefile{toc}{\contentsline {subsection}{\numberline {1.51}Image 51}{19}}
\@writefile{toc}{\contentsline {subsubsection}{\numberline {1.51.1}Original FEN string}{19}}
\@writefile{toc}{\contentsline {subsubsection}{\numberline {1.51.2}Extracted FEN string}{19}}
\@writefile{toc}{\contentsline {subsubsection}{\numberline {1.51.3}Errors}{19}}
\@writefile{toc}{\contentsline {subsection}{\numberline {1.52}Image 52}{19}}
\@writefile{toc}{\contentsline {subsubsection}{\numberline {1.52.1}Original FEN string}{19}}
\@writefile{toc}{\contentsline {subsubsection}{\numberline {1.52.2}Extracted FEN string}{19}}
\@writefile{toc}{\contentsline {subsubsection}{\numberline {1.52.3}Errors}{19}}
\@writefile{toc}{\contentsline {subsection}{\numberline {1.53}Image 53}{19}}
\@writefile{toc}{\contentsline {subsubsection}{\numberline {1.53.1}Original FEN string}{19}}
\@writefile{toc}{\contentsline {subsubsection}{\numberline {1.53.2}Extracted FEN string}{19}}
\@writefile{toc}{\contentsline {subsubsection}{\numberline {1.53.3}Errors}{19}}
\@writefile{toc}{\contentsline {subsection}{\numberline {1.54}Image 54}{19}}
\@writefile{toc}{\contentsline {subsubsection}{\numberline {1.54.1}Original FEN string}{19}}
\@writefile{toc}{\contentsline {subsubsection}{\numberline {1.54.2}Extracted FEN string}{19}}
\@writefile{toc}{\contentsline {subsubsection}{\numberline {1.54.3}Errors}{20}}
\@writefile{toc}{\contentsline {subsection}{\numberline {1.55}Image 55}{20}}
\@writefile{toc}{\contentsline {subsubsection}{\numberline {1.55.1}Original FEN string}{20}}
\@writefile{toc}{\contentsline {subsubsection}{\numberline {1.55.2}Extracted FEN string}{20}}
\@writefile{toc}{\contentsline {subsubsection}{\numberline {1.55.3}Errors}{20}}
\@writefile{toc}{\contentsline {subsection}{\numberline {1.56}Image 56}{20}}
\@writefile{toc}{\contentsline {subsubsection}{\numberline {1.56.1}Original FEN string}{20}}
\@writefile{toc}{\contentsline {subsubsection}{\numberline {1.56.2}Extracted FEN string}{20}}
\@writefile{toc}{\contentsline {subsubsection}{\numberline {1.56.3}Errors}{20}}
\@writefile{toc}{\contentsline {subsection}{\numberline {1.57}Image 57}{20}}
\@writefile{toc}{\contentsline {subsubsection}{\numberline {1.57.1}Original FEN string}{20}}
\@writefile{toc}{\contentsline {subsubsection}{\numberline {1.57.2}Extracted FEN string}{20}}
\@writefile{toc}{\contentsline {subsubsection}{\numberline {1.57.3}Errors}{20}}
\@writefile{toc}{\contentsline {subsection}{\numberline {1.58}Image 58}{20}}
\@writefile{toc}{\contentsline {subsubsection}{\numberline {1.58.1}Original FEN string}{20}}
\@writefile{toc}{\contentsline {subsubsection}{\numberline {1.58.2}Extracted FEN string}{20}}
\@writefile{toc}{\contentsline {subsubsection}{\numberline {1.58.3}Errors}{21}}
\@writefile{toc}{\contentsline {subsection}{\numberline {1.59}Image 59}{21}}
\@writefile{toc}{\contentsline {subsubsection}{\numberline {1.59.1}Original FEN string}{21}}
\@writefile{toc}{\contentsline {subsubsection}{\numberline {1.59.2}Extracted FEN string}{21}}
\@writefile{toc}{\contentsline {subsubsection}{\numberline {1.59.3}Errors}{21}}
\@writefile{toc}{\contentsline {subsection}{\numberline {1.60}Image 60}{21}}
\@writefile{toc}{\contentsline {subsection}{\numberline {1.61}Image 61}{21}}
\@writefile{toc}{\contentsline {subsubsection}{\numberline {1.61.1}Original FEN string}{21}}
\@writefile{toc}{\contentsline {subsubsection}{\numberline {1.61.2}Extracted FEN string}{21}}
\@writefile{toc}{\contentsline {subsubsection}{\numberline {1.61.3}Errors}{21}}
\@writefile{toc}{\contentsline {section}{\numberline {2}Chess pieces detection performance}{21}}
\@writefile{toc}{\contentsline {subsection}{\numberline {2.1}Correctly detected pieces}{21}}
\@writefile{toc}{\contentsline {subsection}{\numberline {2.2}Wrongly detected pieces}{21}}
\@writefile{toc}{\contentsline {section}{\numberline {3}Chessboards detection performance}{21}}
\@writefile{toc}{\contentsline {subsection}{\numberline {3.1}Detected}{21}}
\@writefile{toc}{\contentsline {subsection}{\numberline {3.2}Not detected}{22}}
